00:00:35 Makefile.config:450: *** No gnu/libc-version.h found, please install glibc-dev[el].  Stop.
00:00:35 make[1]: *** [Makefile.perf:240: sub-make] Error 2
00:00:35 make: *** [Makefile:70: all] Error 2
00:00:35 error: Bad exit status from /var/tmp/rpm-tmp.sexpvC (%build)
00:00:35
00:00:35 RPM build errors:
